<?xml version="1.0"?>
<svg xmlns="http://www.w3.org/2000/svg" xmlns:xlink="http://www.w3.org/1999/xlink" xmlns:svgjs="http://svgjs.com/svgjs" version="1.1" width="512" height="512" x="0" y="0" viewBox="0 0 512 512" style="enable-background:new 0 0 512 512" xml:space="preserve" class=""><g>
<g xmlns="http://www.w3.org/2000/svg">
	
		<rect x="193.857" y="95.902" transform="matrix(-0.7071 -0.7071 0.7071 -0.7071 234.6735 414.1124)" style="" width="18.49" height="125.104" fill="#787575" data-original="#666666"/>
	
		<rect x="247.076" y="149.209" transform="matrix(-0.7071 -0.7071 0.7071 -0.7071 416.523 489.4382)" style="" width="125.104" height="18.49" fill="#787575" data-original="#666666"/>
</g>
<circle xmlns="http://www.w3.org/2000/svg" style="" cx="256.003" cy="109.907" r="23.458" fill="#f7b239" data-original="#f7b239"/>
<path xmlns="http://www.w3.org/2000/svg" style="" d="M485.252,425.551H26.748C11.975,425.551,0,413.575,0,398.803V224.446  c0-14.772,11.975-26.748,26.748-26.748h458.504c14.772,0,26.748,11.975,26.748,26.748v174.358  C512,413.575,500.025,425.551,485.252,425.551z" fill="#fb6565" data-original="#f95428" class=""/>
<g xmlns="http://www.w3.org/2000/svg">
	<path style="" d="M81.495,277.034h21.689c3.217,0,5.834,2.617,5.834,5.834c0,5.106,4.139,9.245,9.245,9.245   c5.106,0,9.245-4.139,9.245-9.245c0-13.413-10.912-24.324-24.324-24.324H81.495c-13.413,0-24.324,10.912-24.324,24.324v57.512   c0,13.413,10.912,24.324,24.324,24.324h21.689c13.413,0,24.324-10.912,24.324-24.324c0-5.106-4.139-9.245-9.245-9.245   c-5.106,0-9.245,4.139-9.245,9.245c0,3.217-2.617,5.834-5.834,5.834H81.495c-3.217,0-5.834-2.617-5.834-5.834v-57.512   C75.661,279.651,78.278,277.034,81.495,277.034z" fill="#f2f2f2" data-original="#f2f2f2" class=""/>
	<path style="" d="M260.485,258.544h-8.969c-16.92,0-30.685,13.765-30.685,30.685v44.792   c0,16.92,13.765,30.685,30.685,30.685h8.969c16.92,0,30.685-13.765,30.685-30.685v-44.792   C291.169,272.309,277.404,258.544,260.485,258.544z M272.679,334.021c0,6.724-5.471,12.195-12.195,12.195h-8.969   c-6.724,0-12.195-5.471-12.195-12.195v-44.792c0-6.724,5.471-12.195,12.195-12.195h8.969c6.724,0,12.195,5.471,12.195,12.195   V334.021z" fill="#f2f2f2" data-original="#f2f2f2" class=""/>
	<path style="" d="M346.693,258.544h-12.868c-17.182,0-31.162,13.98-31.162,31.163   c0,17.182,13.98,31.162,31.162,31.162h8.012c6.987,0,12.672,5.685,12.672,12.673c0,6.987-5.685,12.672-12.672,12.672h-12.868   c-4.311,0-7.816-3.507-7.816-7.818v-2.83c0-5.106-4.139-9.245-9.245-9.245c-5.106,0-9.245,4.139-9.245,9.245v2.83   c0,14.506,11.802,26.308,26.307,26.308h12.868c17.182,0,31.162-13.98,31.162-31.162c0-17.184-13.98-31.163-31.162-31.163h-8.012   c-6.987,0-12.672-5.685-12.672-12.672c0-6.988,5.685-12.673,12.672-12.673h12.868c4.311,0,7.816,3.507,7.816,7.818v2.6   c0,5.106,4.139,9.245,9.245,9.245s9.245-4.139,9.245-9.245v-2.6C372.999,270.345,361.199,258.544,346.693,258.544z" fill="#f2f2f2" data-original="#f2f2f2" class=""/>
	<path style="" d="M200.094,331.277c-5.106,0-9.245,4.139-9.245,9.245v5.693h-33.358v-78.426   c0-5.106-4.139-9.245-9.245-9.245s-9.245,4.139-9.245,9.245v87.671c0,5.106,4.139,9.245,9.245,9.245h51.848   c5.106,0,9.245-4.139,9.245-9.245v-14.938C209.339,335.416,205.199,331.277,200.094,331.277z" fill="#f2f2f2" data-original="#f2f2f2" class=""/>
	<path style="" d="M445.586,346.214h-42.603v-25.345h16.678c5.106,0,9.245-4.139,9.245-9.245s-4.139-9.245-9.245-9.245   h-16.678v-25.345h42.603c5.106,0,9.245-4.139,9.245-9.245c0-5.106-4.139-9.245-9.245-9.245h-51.848   c-5.106,0-9.245,4.139-9.245,9.245v87.671c0,5.106,4.139,9.245,9.245,9.245h51.848c5.106,0,9.245-4.139,9.245-9.245   C454.831,350.354,450.691,346.214,445.586,346.214z" fill="#f2f2f2" data-original="#f2f2f2" class=""/>
</g>
<g xmlns="http://www.w3.org/2000/svg">
</g>
<g xmlns="http://www.w3.org/2000/svg">
</g>
<g xmlns="http://www.w3.org/2000/svg">
</g>
<g xmlns="http://www.w3.org/2000/svg">
</g>
<g xmlns="http://www.w3.org/2000/svg">
</g>
<g xmlns="http://www.w3.org/2000/svg">
</g>
<g xmlns="http://www.w3.org/2000/svg">
</g>
<g xmlns="http://www.w3.org/2000/svg">
</g>
<g xmlns="http://www.w3.org/2000/svg">
</g>
<g xmlns="http://www.w3.org/2000/svg">
</g>
<g xmlns="http://www.w3.org/2000/svg">
</g>
<g xmlns="http://www.w3.org/2000/svg">
</g>
<g xmlns="http://www.w3.org/2000/svg">
</g>
<g xmlns="http://www.w3.org/2000/svg">
</g>
<g xmlns="http://www.w3.org/2000/svg">
</g>
</g></svg>
