<?xml version="1.0" encoding="UTF-8" standalone="no"?>
<!-- Created with Inkscape (http://www.inkscape.org/) -->

<svg
   xmlns:dc="http://purl.org/dc/elements/1.1/"
   xmlns:cc="http://creativecommons.org/ns#"
   xmlns:rdf="http://www.w3.org/1999/02/22-rdf-syntax-ns#"
   xmlns:svg="http://www.w3.org/2000/svg"
   xmlns="http://www.w3.org/2000/svg"
   xmlns:xlink="http://www.w3.org/1999/xlink"
   xmlns:sodipodi="http://sodipodi.sourceforge.net/DTD/sodipodi-0.dtd"
   xmlns:inkscape="http://www.inkscape.org/namespaces/inkscape"
   width="96"
   height="96"
   id="svg5453"
   version="1.1"
   inkscape:version="0.92.4 (5da689c313, 2019-01-14)"
   sodipodi:docname="pos-icon.svg"
   inkscape:export-filename="/media/DATA/Seafile/DEVELOPMENT/TRYTON/TRYTON-5.0/FRONTENDS/psk_pos/app/share/icon.png"
   inkscape:export-xdpi="86"
   inkscape:export-ydpi="86">
  <defs
     id="defs5455">
    <linearGradient
       id="linearGradient4159"
       inkscape:collect="always">
      <stop
         id="stop4161"
         offset="0"
         style="stop-color:#191a1c;stop-opacity:1" />
      <stop
         id="stop4163"
         offset="1"
         style="stop-color:#333638;stop-opacity:1" />
    </linearGradient>
    <linearGradient
       inkscape:collect="always"
       xlink:href="#linearGradient4159"
       id="linearGradient4250"
       x1="409.57144"
       y1="536.79797"
       x2="409.57144"
       y2="503.798"
       gradientUnits="userSpaceOnUse"
       gradientTransform="matrix(2,0,0,2,-384.57144,-547.798)" />
    <linearGradient
       gradientTransform="translate(-151.16884,-148.58631)"
       inkscape:collect="always"
       xlink:href="#linearGradient4416"
       id="linearGradient4422"
       x1="551.60089"
       y1="660.80713"
       x2="570.64661"
       y2="644.7854"
       gradientUnits="userSpaceOnUse" />
    <linearGradient
       inkscape:collect="always"
       id="linearGradient4416">
      <stop
         style="stop-color:#44aa00;stop-opacity:1;"
         offset="0"
         id="stop4418" />
      <stop
         style="stop-color:#44aa00;stop-opacity:0;"
         offset="1"
         id="stop4420" />
    </linearGradient>
    <linearGradient
       gradientTransform="translate(-151.16884,-148.58631)"
       inkscape:collect="always"
       xlink:href="#linearGradient4216"
       id="linearGradient4414"
       x1="541.46667"
       y1="641.34729"
       x2="629.46667"
       y2="641.34729"
       gradientUnits="userSpaceOnUse" />
    <linearGradient
       id="linearGradient4216"
       inkscape:collect="always">
      <stop
         id="stop4196"
         offset="0"
         style="stop-color:#2ca05a;stop-opacity:1" />
      <stop
         id="stop4198"
         offset="1"
         style="stop-color:#005544;stop-opacity:1" />
    </linearGradient>
    <filter
       inkscape:collect="always"
       style="color-interpolation-filters:sRGB"
       id="filter4496"
       x="-0.034391314"
       width="1.0687826"
       y="-0.037766567"
       height="1.0755331">
      <feGaussianBlur
         inkscape:collect="always"
         stdDeviation="0.89824537"
         id="feGaussianBlur4498" />
    </filter>
  </defs>
  <sodipodi:namedview
     id="base"
     pagecolor="#ffffff"
     bordercolor="#666666"
     borderopacity="1.0"
     inkscape:pageopacity="0"
     inkscape:pageshadow="2"
     inkscape:zoom="2.9293075"
     inkscape:cx="-89.279663"
     inkscape:cy="32.315392"
     inkscape:document-units="px"
     inkscape:current-layer="g4466"
     showgrid="false"
     fit-margin-top="0"
     fit-margin-left="0"
     fit-margin-right="0"
     fit-margin-bottom="0"
     inkscape:window-width="1850"
     inkscape:window-height="1025"
     inkscape:window-x="70"
     inkscape:window-y="27"
     inkscape:window-maximized="1"
     inkscape:showpageshadow="false"
     borderlayer="true"
     showguides="false">
    <inkscape:grid
       type="xygrid"
       id="grid4063" />
    <sodipodi:guide
       position="1.1650391e-05,47.999996"
       orientation="4,0"
       id="guide4146"
       inkscape:locked="false" />
    <sodipodi:guide
       position="1.1650391e-05,43.999996"
       orientation="0,48"
       id="guide4148"
       inkscape:locked="false" />
    <sodipodi:guide
       position="48.000012,43.999996"
       orientation="-4,0"
       id="guide4150"
       inkscape:locked="false" />
    <sodipodi:guide
       position="48.000012,47.999996"
       orientation="0,-48"
       id="guide4152"
       inkscape:locked="false" />
    <sodipodi:guide
       position="1.1650391e-05,4.0000264"
       orientation="4,0"
       id="guide4154"
       inkscape:locked="false" />
    <sodipodi:guide
       position="1.1650391e-05,2.6367188e-05"
       orientation="0,48"
       id="guide4156"
       inkscape:locked="false" />
    <sodipodi:guide
       position="48.000012,2.6367188e-05"
       orientation="-4,0"
       id="guide4158"
       inkscape:locked="false" />
    <sodipodi:guide
       position="48.000012,4.0000264"
       orientation="0,-48"
       id="guide4160"
       inkscape:locked="false" />
    <sodipodi:guide
       position="48.000012,48.000026"
       orientation="0,-4"
       id="guide4162"
       inkscape:locked="false" />
    <sodipodi:guide
       position="44.000012,48.000026"
       orientation="48,0"
       id="guide4164"
       inkscape:locked="false" />
    <sodipodi:guide
       position="44.000012,2.6367188e-05"
       orientation="0,4"
       id="guide4166"
       inkscape:locked="false" />
    <sodipodi:guide
       position="48.000012,2.6367188e-05"
       orientation="-48,0"
       id="guide4168"
       inkscape:locked="false" />
    <sodipodi:guide
       position="4.0000422,48.000026"
       orientation="0,-4"
       id="guide4170"
       inkscape:locked="false" />
    <sodipodi:guide
       position="4.2167969e-05,48.000026"
       orientation="48,0"
       id="guide4172"
       inkscape:locked="false" />
    <sodipodi:guide
       position="4.2167969e-05,2.6367188e-05"
       orientation="0,4"
       id="guide4174"
       inkscape:locked="false" />
    <sodipodi:guide
       position="4.0000422,2.6367188e-05"
       orientation="-48,0"
       id="guide4176"
       inkscape:locked="false" />
  </sodipodi:namedview>
  <metadata
     id="metadata5458">
    <rdf:RDF>
      <cc:Work
         rdf:about="">
        <dc:format>image/svg+xml</dc:format>
        <dc:type
           rdf:resource="http://purl.org/dc/dcmitype/StillImage" />
        <dc:title />
      </cc:Work>
    </rdf:RDF>
  </metadata>
  <g
     inkscape:label="Capa 1"
     inkscape:groupmode="layer"
     id="layer1"
     transform="translate(-384.57143,-451.798)">
    <path
       style="opacity:1;fill:#b3b3b3;fill-opacity:1;stroke:none;stroke-width:2.79999995;stroke-miterlimit:4;stroke-dasharray:none;stroke-opacity:0.55026455"
       d="m 420.57144,525.798 0,14 0,4 0,4 24,0 0,-4 0,-4 0,-14 z"
       id="rect4254"
       inkscape:connector-curvature="0"
       sodipodi:nodetypes="ccccccccc"
       inkscape:export-xdpi="86"
       inkscape:export-ydpi="86" />
    <rect
       style="opacity:1;fill:url(#linearGradient4250);fill-opacity:1;stroke:none;stroke-width:2.79999995;stroke-miterlimit:4;stroke-dasharray:none;stroke-opacity:0.55026455"
       id="rect4173"
       width="96"
       height="71.999992"
       x="384.57144"
       y="459.798"
       ry="7.7244935"
       inkscape:export-xdpi="86"
       inkscape:export-ydpi="86" />
    <rect
       style="opacity:1;fill:#4d4d4d;fill-opacity:1;stroke:none;stroke-width:2.79999995;stroke-miterlimit:4;stroke-dasharray:none;stroke-opacity:0.55026455"
       id="rect4295"
       width="44"
       height="1.9999473"
       x="410.57144"
       y="545.79797"
       inkscape:export-xdpi="86"
       inkscape:export-ydpi="86" />
    <circle
       style="opacity:0.75;fill:#dfdfdf;fill-opacity:1;fill-rule:evenodd;stroke:none"
       id="path3072"
       cx="432.57144"
       cy="527.79797"
       r="2"
       inkscape:export-xdpi="86"
       inkscape:export-ydpi="86" />
    <g
       id="g4466"
       transform="translate(-1.7264214,1.9311233)">
      <rect
         style="color:#000000;clip-rule:nonzero;display:inline;overflow:visible;visibility:visible;opacity:1;isolation:auto;mix-blend-mode:normal;color-interpolation:sRGB;color-interpolation-filters:linearRGB;solid-color:#000000;solid-opacity:1;fill:url(#linearGradient4414);fill-opacity:1;fill-rule:evenodd;stroke:none;stroke-width:1.00800002;stroke-linecap:butt;stroke-linejoin:miter;stroke-miterlimit:4;stroke-dasharray:none;stroke-dashoffset:0;stroke-opacity:1;marker:none;color-rendering:auto;image-rendering:auto;shape-rendering:auto;text-rendering:auto;enable-background:accumulate"
         id="rect4304"
         width="88.000023"
         height="60"
         x="390.29785"
         y="462.76099"
         ry="4.8278084"
         inkscape:export-xdpi="86"
         inkscape:export-ydpi="86" />
      <path
         sodipodi:nodetypes="cccc"
         inkscape:connector-curvature="0"
         id="path4376"
         d="m 391.87831,463.87746 62.68411,57.08194 -62.58979,1.44377 z"
         style="color:#000000;clip-rule:nonzero;display:inline;overflow:visible;visibility:visible;opacity:0.7;isolation:auto;mix-blend-mode:normal;color-interpolation:sRGB;color-interpolation-filters:linearRGB;solid-color:#000000;solid-opacity:1;fill:url(#linearGradient4422);fill-opacity:1;fill-rule:evenodd;stroke:none;stroke-width:1.00800002;stroke-linecap:butt;stroke-linejoin:miter;stroke-miterlimit:4;stroke-dasharray:none;stroke-dashoffset:0;stroke-opacity:1;marker:none;filter:url(#filter4496);color-rendering:auto;image-rendering:auto;shape-rendering:auto;text-rendering:auto;enable-background:accumulate"
         inkscape:export-xdpi="86"
         inkscape:export-ydpi="86" />
    </g>
    <path
       inkscape:connector-curvature="0"
       id="path5303"
       d="m 408.31843,502.48155 c 1.3237,-0.69525 3.79964,0.43726 4.92083,2.25166 1.00533,1.62659 6.09832,3.14073 7.90299,2.34942 1.20425,-0.52776 1.50824,-1.19658 1.60257,-3.52566 0.17757,-4.38004 -0.80908,-7.80962 -4.00331,-13.91508 -1.60303,-3.06412 -3.28264,-6.4527 -3.73248,-7.52872 -0.44991,-1.07658 -1.66288,-2.97675 -2.69546,-4.22277 -2.19741,-2.65029 -2.26574,-3.37448 -0.46222,-4.91191 2.70034,-2.30191 7.26228,1.42439 6.27756,5.12758 -0.48467,1.82274 0.44567,4.48144 3.52694,10.07884 3.65609,6.64207 7.36162,9.33248 9.5746,6.95199 0.5718,-0.6147 1.28144,-4.04474 1.93548,-9.35441 0.98384,-7.98595 0.97885,-8.46385 -0.10438,-10.06939 -1.87315,-2.77589 -0.10664,-5.65642 2.85718,-4.66014 2.98839,1.00432 4.93795,5.06863 3.06508,6.38946 -0.831,0.5859 -1.09968,2.28964 -1.47672,9.36699 -0.48331,9.07524 -0.11758,11.50427 1.91565,12.72512 1.80723,1.08492 2.43574,0.86433 6.24548,-2.20044 4.04239,-3.25135 5.70426,-5.35577 5.81102,-7.35804 0.0995,-1.86226 1.3332,-2.85856 3.30017,-2.66383 1.25386,0.12413 1.81372,0.53632 2.51454,1.84959 1.43104,2.6818 1.02102,4.38575 -1.15994,4.82107 -1.77721,0.35438 -4.83019,4.28802 -9.52682,12.27399 -4.95946,8.43269 -6.04639,9.31102 -11.60445,9.37845 -2.28489,0.0268 -5.48154,-0.73331 -13.00681,-3.09616 -5.4877,-1.7236 -10.69025,-3.21944 -11.56109,-3.32503 -3.14685,-0.38014 -4.71449,-5.36708 -2.11617,-6.73258 z"
       style="fill:#ffffff;fill-opacity:1;stroke:none;stroke-width:1.26842833;stroke-miterlimit:4;stroke-dasharray:none;stroke-opacity:1"
       inkscape:export-filename="/home/bch/icon.png"
       inkscape:export-xdpi="86.470001"
       inkscape:export-ydpi="86.470001" />
  </g>
</svg>
