<?xml version="1.0" encoding="utf-8"?>
<!-- Svg Vector Icons : http://www.onlinewebfonts.com/icon -->
<!DOCTYPE svg PUBLIC "-//W3C//DTD SVG 1.1//EN" "http://www.w3.org/Graphics/SVG/1.1/DTD/svg11.dtd">
<svg version="1.1" xmlns="http://www.w3.org/2000/svg" xmlns:xlink="http://www.w3.org/1999/xlink" x="0px" y="0px" viewBox="0 0 256 256" enable-background="new 0 0 256 256" xml:space="preserve">
<metadata> Svg Vector Icons : http://www.onlinewebfonts.com/icon </metadata>
<g><g><path fill="#000000" d="M244.9,179.5l-40.2-35.8c-1.1-1.1-2.7-1.4-4.1-0.8c-1.4,0.6-2.3,2-2.3,3.5v19.5c-25.8,0-60.1,12.5-60.1,76.5c11.3-40.8,26.5-43.9,60.1-43.9v19.8c0,1.5,0.8,2.9,2.3,3.5c0.5,0.2,1,0.3,1.4,0.3c1,0,2-0.4,2.7-1.1l40.2-36.1C246.4,183.4,246.4,181,244.9,179.5z"/><path fill="#000000" d="M46.4,222.8c-10,0-18.2-8.2-18.2-18.2V50c0-10,8.2-18.2,18.2-18.2l57.2,0c6.6,1.7,6.5,9.7,6.5,17.8v27.7c0,5,4.1,9.1,9.1,9.1h27.3c9.1,0,18.2,0,18.2,9.1V141c5.7-2.4,11.8-4,18.2-4.8V86.4c0-9.7-9-18.9-24.9-34.5c-2.2-2.2-4.5-4.4-6.7-6.7c-2.3-2.2-4.5-4.5-6.7-6.7C129,22.6,119.7,13.6,110,13.6H46.4C26.3,13.6,10,29.9,10,50v154.6c0,20.1,16.3,36.4,36.4,36.4h90.9c-4.5-5.4-8.3-11.6-11-18.2L46.4,222.8L46.4,222.8z"/></g></g>
</svg>